[
    {
        "tabName": "School",
        "projects": [
            {
                "id": 1,
                "body" : "Coming Soon for description>",
                "date" : "Sat May 04 2019 18:43:50 GMT+0800 (Singapore Standard Time)",
                "desc" : "Software Engineer Thesis",
                "image" : "https://encrypted-tbn0.gstatic.com/images?q=tbn:ANd9GcRo3BREnvrsDHgPviernNiXx130sB3Hhf3jkg&usqp=CAU",
                "slug" : "parokya-ng-banal-na-sakremento",
                "title" : "Reservation System for Parokya ng banal Sakramento",
                "platform": [
                    {
                        "name": "Web"
                    }
                ],
                "tool": [
                    {
                        "name": "PHP",
                        "url": "https://cdn.jsdelivr.net/gh/devicons/devicon/icons/php/php-plain.svg"
                    },
                    {
                        "name": "Javascript",
                        "url": "https://cdn.jsdelivr.net/gh/devicons/devicon/icons/javascript/javascript-original.svg"
                    },
                    {
                        "name": "Bootstrap 3",
                        "url": "https://cdn.jsdelivr.net/gh/devicons/devicon/icons/bootstrap/bootstrap-plain.svg"
                    }
                ]
            },
            {
                "id": 1,
                "body" : "<p><em>I worked this project to my thesis proposal in STI College Novaliches, this project was discontinue.</em></p><p><strong>My Thesis Mate:</strong></p><ul><li>Catuday, Abegail Mae</li><li>Javier, Rodel</li><li>Oquendo, Jan Richie</li></ul><p><strong>Our client:</strong></p><ul><li>MMDA - GASD Transport unit</li></ul><br><p>This system helps to be automated and convenient for the\nMMDA. Especially for attendance and appraisal. This will be computed the job perfomance of a employee with the attendance monitoring using RFID will be check the day where they time in and time out.</p><br><p><strong>Features:</strong></p><ul><li>Employee Information</li><li>Single and Multiple Appraisal of a employee</li><li>Add and change tasks/designation for specific employee&nbsp;</li><li>Upload excel</li><li>Login History</li><li>Attendance Monitoring</li><li>Attendance monthly record</li><li>Employee Schedule</li><li>Employee Eligibility</li><li>Vacant Tasks/Designation</li><li>Single and Multiple Renewal for employee</li><li>User Management</li></ul><p><strong>Screenshot:&nbsp;</strong></p>\n\n<img class=\"img-cloud\" src=\"https://i.ibb.co/4Yzvd40/1.png\"><br><br><p><strong>Used:</strong></p><p><ul><li>Codeigniter&nbsp;3.1.9</li><li>Vue js</li><li>Bootstrap 4 (Core Ui)</li><li>Font Awesome<br></li></ul></p>",
                "date" : "Sat May 04 2019 18:43:50 GMT+0800 (Singapore Standard Time)",
                "desc" : "A employee's job performace for MMDA",
                "image" : "https://firebasestorage.googleapis.com/v0/b/mywebsite-06.appspot.com/o/works%2F-Le1RLBpX_Pi5zqVQqzl..png?alt=media&token=c85a42cd-a9e7-4f2f-8e0a-18f8bf7cddc5",
                "slug" : "performance-appraisal-with-attendace-monitoring-using-rfid",
                "title" : "Performance Appraisal with Attendace Monitoring using RFID",
                "platform": [
                    {
                        "name": "Web"
                    }
                ],
                "tool": [
                    {
                        "name": "PHP",
                        "url": "https://cdn.jsdelivr.net/gh/devicons/devicon/icons/php/php-plain.svg"
                    },
                    {
                        "name": "Javascript",
                        "url": "https://cdn.jsdelivr.net/gh/devicons/devicon/icons/javascript/javascript-original.svg"
                    },
                    {
                        "name": "Codeigniter",
                        "url": "https://cdn.jsdelivr.net/gh/devicons/devicon/icons/codeigniter/codeigniter-plain.svg"
                    },
                    {
                        "name": "Vue",
                        "url": "https://cdn.jsdelivr.net/gh/devicons/devicon/icons/vuejs/vuejs-original.svg"
                    },
                    {
                        "name": "Bootstrap 4",
                        "url": "https://cdn.jsdelivr.net/gh/devicons/devicon/icons/bootstrap/bootstrap-plain.svg"
                    }
                ]
            }
        ]
    },
    {
        "tabName": "Freelance",
        "projects": [

            {
                "id": 2,
                "body" : "Coming Soon for description",
                "date" : "Sat May 04 2019 18:43:50 GMT+0800 (Singapore Standard Time)",
                "desc" : "Mobile app for Blood of Hope",
                "image" : "https://i.ibb.co/F5FsmyF/blood-donation.jpg",
                "slug" : "blood-donation-app",
                "title" : "Blood Donation App for Blood of Hope",
                "platform": [
                    {
                        "name": "Android"
                    }
                ],
                "tool": [
                    {
                        "name": "Javascript",
                        "url": "https://cdn.jsdelivr.net/gh/devicons/devicon/icons/javascript/javascript-original.svg"
                    },
                    {
                        "name": "Ionic",
                        "url": "https://cdn.jsdelivr.net/gh/devicons/devicon/icons/ionic/ionic-original.svg"
                    },
                    {
                        "name": "Angular",
                        "url": "https://cdn.jsdelivr.net/gh/devicons/devicon/icons/angularjs/angularjs-plain.svg"
                    },
                    {
                        "name": "Android",
                        "url": "https://cdn.jsdelivr.net/gh/devicons/devicon/icons/android/android-plain.svg"
                    }

                ]
            },
            {
                "id": 2,
                "body" : "<p>A Thesis project of 4 year college students at STI Caloocan, me and my co-worker who are developing this software, based on their documentation and the client wants. I'm the developer for the mobile app is written in React Native my co worker is the developer for APIs and the admin website that's written in ASP.NET Core.</p><p> </p><p>This project is for the client who want to treat their loves, that it has a mental illness and need to be observed by psychiatric nurses. The mobile app is creating to facilitate the registration and scheduling. The hospital will act quickly in what date scheduled by the client so that it can go immediately to the patient's home using Ambulance Car.</p><p> </p><p>I can only provide few details and screenshots because it is confidential by the student client.</p><p>the screenshots are here - <a style='color: dodgerblue;' href='https://ibb.co/album/j9742h'>https://ibb.co/album/j9742h</a></p><p> </p>",
                "date" : "Sat May 04 2019 18:43:50 GMT+0800 (Singapore Standard Time)",
                "desc" : "Ablecare mobile app",
                "image" : "https://i.ibb.co/3RWRgt8/ablecare.jpg",
                "slug" : "ablecare-app",
                "title" : "Patient Information System with Psychiatric Ambulance Assistance Application for AbleCare",
                "platform": [
                    {
                        "name": "Android"
                    }
                ],
                "tool": [
                    {
                        "name": "Javascript",
                        "url": "https://cdn.jsdelivr.net/gh/devicons/devicon/icons/javascript/javascript-original.svg"
                    },
                    {
                        "name": "React Native",
                        "url": "https://cdn.jsdelivr.net/gh/devicons/devicon/icons/react/react-original.svg"
                    },
                    {
                        "name": "Redux",
                        "url": "https://cdn.jsdelivr.net/gh/devicons/devicon/icons/redux/redux-original.svg"
                    },
                    {
                        "name": "Android Studio",
                        "url": "https://cdn.jsdelivr.net/gh/devicons/devicon/icons/androidstudio/androidstudio-original.svg"
                    }

                ]
            }
        ]
    },
    {
        "tabName": "Company",
        "projects": [
            {
                "id": 2,
                "body" : "<p>An eCommerce mobile app (Android, IOS, Web Mobile)</p><p>This project is written in ionic and angular and provides native features using a Cordova and Capacitor. It's cross-platform. I'm the developer working for android, IOS, web mobile, and APIs. I do very little on the website, but I help sometime when there are bugs or when there is a need for a mobile app like deep link and redirect URLs for desktop and mobile browsers.<br/><br/>If you want to see the demo, here are the links:<br/>Facebook page - <a style='color: dodgerblue;' href='https://www.facebook.com/pesoapp.ph'>https://www.facebook.com/pesoapp.ph</a><br/>Website - <a style='color: dodgerblue;' href='https://pesoapp.ph'>https://pesoapp.ph</a><br/>Play store - <a style='color: dodgerblue;' href='https://play.google.com/store/apps/details?id=xyz.appmaker.jkspsq'>https://play.google.com/store/apps/details?id=xyz.appmaker.jkspsq</a><br/>App Store - <a style='color: dodgerblue;' href='https://apps.apple.com/ph/app/pinoy-electronic-store-online/id1485215649'>https://apps.apple.com/ph/app/pinoy-electronic-store-online/id1485215649</a><br/>Web mobile - <a style='color: dodgerblue;' href='https://peso-app-42698.web.app'>https://peso-app-42698.web.app</a></p><p>I developed it using Macbook Pro laptop provided by the company</p><p> </p><p>Screenshot for running the app on android studio and xcode</p><p style='display: flex;'><img src='https://i.ibb.co/r3c5Tpm/Screen-Shot-2022-07-17-at-1-25-49-PM.png' alt='' width='450' height='282'/> <img src='https://i.ibb.co/MZxSLNp/Screen-Shot-2022-07-17-at-1-45-13-PM.png' alt='' width='450' height='281'/></p><p> </p><p>Screenshot for deploying or publish the app on play store, app store and hosting using firebase</p><p style='display: flex;'><img src='https://i.ibb.co/D1Zczhy/Screen-Shot-2022-07-17-at-1-54-33-PM.png' alt='' width='450' height='281'/></p><p> </p><p>Screenshot for debugging the app using chrome inspect and safari inspect</p><p style='display: flex;'><img src='https://i.ibb.co/7nRXdHw/Screen-Shot-2022-07-17-at-1-46-16-PM.png' alt='' width='450' height='281'/><img src='https://i.ibb.co/sFg3WzM/Screen-Shot-2022-07-17-at-1-28-17-PM.png' alt='' width='450' height='281'/></p><p> </p><p> </p>",
                "date" : "Sat May 04 2019 18:43:50 GMT+0800 (Singapore Standard Time)",
                "desc" : "Mobile App for Pinoy Electronic Store Online",
                "image" : "https://play-lh.googleusercontent.com/ks292DhT1B3gOgZiaqSW_e0JdFV-jbvw70WoSZmEMXP1yOzx-EKNcVG4kapCogKYcA=w240-h480-rw",
                "slug" : "pinoy-electronic-store-online-app",
                "title" : "Pinoy Electronic Store Online",
                "platform": [
                    {
                        "name": "Web"
                    },
                    {
                        "name": "Android"
                    },
                    {
                        "name": "IOS"
                    }
                ],
                "tool": [
                    {
                        "name": "PHP",
                        "url": "https://cdn.jsdelivr.net/gh/devicons/devicon/icons/php/php-plain.svg"
                    },
                    {
                        "name": "MySQL",
                        "url": "https://cdn.jsdelivr.net/gh/devicons/devicon/icons/mysql/mysql-original-wordmark.svg"
                    },
                    {
                        "name": "Javascript",
                        "url": "https://cdn.jsdelivr.net/gh/devicons/devicon/icons/javascript/javascript-original.svg"
                    },
                    {
                        "name": "Ionic",
                        "url": "https://cdn.jsdelivr.net/gh/devicons/devicon/icons/ionic/ionic-original.svg"
                    },
                    {
                        "name": "Angular",
                        "url": "https://cdn.jsdelivr.net/gh/devicons/devicon/icons/angularjs/angularjs-plain.svg"
                    },
                    {
                        "name": "Android Studio",
                        "url": "https://cdn.jsdelivr.net/gh/devicons/devicon/icons/androidstudio/androidstudio-original.svg"
                    },
                    {
                        "name": "Xcode",
                        "url": "https://cdn.jsdelivr.net/gh/devicons/devicon/icons/xcode/xcode-original.svg"
                    }
                ]
            }
        ]
    },
    {
        "tabName": "Learn",
        "projects": [
            {
                "id": 2,
                "body" : "<p><strong>Features:</strong><br/>User register<br/>Find match people based on age and gender<br/>Members can like, message, and view profile<br/>Lists of a member that like you and you like<br/>Update profile picture, description, looking for, interests, and location details<br/>Message tabs for unread, inbox, and outbox</p><p>Screenshot - <a style='color: dodgerblue;' href='https://ibb.co/album/N9vpww' target='_blank' rel='noopener'>https://ibb.co/album/N9vpww</a></p><p> </p><p>Source code - <a style='color: dodgerblue;' href='https://bitbucket.org/marckevinflores/datingapp/src/master/' target='_blank' rel='noopener'>https://bitbucket.org/marckevinflores/datingapp/src/master/</a></p><p> </p><p>if you want to update this project, you can send me a message on my email</p><p> </p><p>How to run:</p><ol><li>download <strong><a style='color: dodgerblue;' href='https://dotnet.microsoft.com/en-us/download/dotnet/2.1' target='_blank' rel='noopener'>Dotnet sdk x64</a></strong> and <strong><a style='color: dodgerblue;' href='https://nodejs.org/en/' target='_blank' rel='noopener'>Node.js</a></strong></li><li>run <strong>npm install -g @angular/cli</strong> on command line</li><li>cd DatingApp.API</li><li>dotnet run watch</li><li>cd DatingApp-SPA</li><li>npm install</li><li>ng serve</li></ol><p> </p><p> </p>",
                "date" : "Sat May 04 2019 18:43:50 GMT+0800 (Singapore Standard Time)",
                "desc" : "Dating App",
                "image" : "https://i.ibb.co/pyKM2wY/datingapp.jpg",
                "slug" : "dating-app",
                "title" : "Dating App",
                "platform": [
                    {
                        "name": "Web"
                    }
                ],
                "tool": [
                    {
                        "name": "C#",
                        "url": "https://cdn.jsdelivr.net/gh/devicons/devicon/icons/csharp/csharp-plain.svg"
                    },
                    {
                        "name": "Javascript",
                        "url": "https://cdn.jsdelivr.net/gh/devicons/devicon/icons/javascript/javascript-original.svg"
                    },
                    {
                        "name": "Angular",
                        "url": "https://cdn.jsdelivr.net/gh/devicons/devicon/icons/angularjs/angularjs-plain.svg"
                    },
                    {
                        "name": ".NET Core",
                        "url": "https://cdn.jsdelivr.net/gh/devicons/devicon/icons/dotnetcore/dotnetcore-original.svg"
                    },
                    {
                        "name": "Bootstrap 4",
                        "url": "https://cdn.jsdelivr.net/gh/devicons/devicon/icons/bootstrap/bootstrap-plain.svg"
                    },
                    {
                       "name": "SQLite",
                       "url": "https://cdn.jsdelivr.net/gh/devicons/devicon/icons/sqlite/sqlite-original.svg"
                    }
                ]
            },
            {
                "id": 2,
                "body" : "Coming Soon for description",
                "date" : "Sat May 04 2019 18:43:50 GMT+0800 (Singapore Standard Time)",
                "desc" : "Node.js realtime chat room app",
                "image" : "https://i.ibb.co/9874ZgG/chat-room.png",
                "slug" : "nodejs-chat-room",
                "title" : "Node Chat Room App",
                "platform": [
                    {
                        "name": "Web"
                    }
                ],
                "tool": [
                    {
                        "name": "Javascript",
                        "url": "https://cdn.jsdelivr.net/gh/devicons/devicon/icons/javascript/javascript-original.svg"
                    },
                    {
                        "name": "Node.js",
                        "url": "https://cdn.jsdelivr.net/gh/devicons/devicon/icons/nodejs/nodejs-original.svg"
                    },
                    {
                        "name": "Express",
                        "url": "https://cdn.jsdelivr.net/gh/devicons/devicon/icons/express/express-original.svg"
                    },
                    {
                        "name": "Socket.io",
                        "url": "https://cdn.jsdelivr.net/gh/devicons/devicon/icons/socketio/socketio-original.svg"
                    }

                ]
            },
            {
                "id": 2,
                "body" : "Coming Soon for description",
                "date" : "Sat May 04 2019 18:43:50 GMT+0800 (Singapore Standard Time)",
                "desc" : "MERN Stack Social Media App for Developers",
                "image" : "https://i.ibb.co/B6yT7Hj/devcon.jpg",
                "slug" : "dev-connect-social-app",
                "title" : "Developer Connector - Social Media App",
                "platform": [
                    {
                        "name": "Web"
                    }
                ],
                "tool": [
                    {
                        "name": "Javascript",
                        "url": "https://cdn.jsdelivr.net/gh/devicons/devicon/icons/javascript/javascript-original.svg"
                    },
                    {
                        "name": "Node.js",
                        "url": "https://cdn.jsdelivr.net/gh/devicons/devicon/icons/nodejs/nodejs-original.svg"
                    },
                    {
                        "name": "Express",
                        "url": "https://cdn.jsdelivr.net/gh/devicons/devicon/icons/express/express-original.svg"
                    },
                    {
                        "name": "React",
                        "url": "https://cdn.jsdelivr.net/gh/devicons/devicon/icons/react/react-original.svg"
                    },
                    {
                        "name": "Redux",
                        "url": "https://cdn.jsdelivr.net/gh/devicons/devicon/icons/redux/redux-original.svg"
                    },
                    {
                        "name": "MongoDB",
                        "url": "https://cdn.jsdelivr.net/gh/devicons/devicon/icons/mongodb/mongodb-original.svg"
                    }
                ]
            },
            {
              "id": 2,
              "body" : "Coming Soon for description",
              "date" : "Sat May 04 2019 18:43:50 GMT+0800 (Singapore Standard Time)",
              "desc" : "Lakbayan Travel and Tour Website",
              "image" : "https://i.ibb.co/cCpzD09/lakbayan.jpg",
              "slug" : "lakbayan-landing-page",
              "title" : "Lakbayan Landing Page",
              "platform": [
                  {
                      "name": "Web"
                  }
              ],
              "tool": [
                  {
                      "name": "Node.js",
                      "url": "https://cdn.jsdelivr.net/gh/devicons/devicon/icons/nodejs/nodejs-original.svg"
                  },
                  {
                      "name": "SASS",
                      "url": "https://cdn.jsdelivr.net/gh/devicons/devicon/icons/sass/sass-original.svg"
                  },
                  {
                    "name": "Tailwind",
                    "url": "https://cdn.jsdelivr.net/gh/devicons/devicon/icons/tailwindcss/tailwindcss-plain.svg"
                  },
                  {
                    "name": "Next.js",
                    "url": "https://cdn.jsdelivr.net/gh/devicons/devicon/icons/nextjs/nextjs-original.svg"
                  }
              ]
          },
          {
            "id": 2,
            "body" : "Coming Soon for description",
            "date" : "Sat May 04 2019 18:43:50 GMT+0800 (Singapore Standard Time)",
            "desc" : "Social Dating app",
            "image" : "https://i.ibb.co/LkXCHPc/social-dating-app.jpg",
            "slug" : "social-dating-website",
            "title" : "PUSO - Social Dating Website",
            "platform": [
                {
                    "name": "Web"
                }
            ],
            "tool": [
                {
                    "name": "Node.js",
                    "url": "https://cdn.jsdelivr.net/gh/devicons/devicon/icons/nodejs/nodejs-original.svg"
                },
                {
                  "name": "React",
                  "url": "https://cdn.jsdelivr.net/gh/devicons/devicon/icons/react/react-original.svg"
                },
                {
                    "name": "Redux",
                    "url": "https://cdn.jsdelivr.net/gh/devicons/devicon/icons/redux/redux-original.svg"
                },
                {
                    "name": "MongoDB",
                    "url": "https://cdn.jsdelivr.net/gh/devicons/devicon/icons/mongodb/mongodb-original.svg"
                },
                {
                  "name": "Next.js",
                  "url": "https://cdn.jsdelivr.net/gh/devicons/devicon/icons/nextjs/nextjs-original.svg"
                },
                {
                  "name": "Chakra UI",
                  "url": "https://pbs.twimg.com/profile_images/1244925541448286208/rzylUjaf_400x400.jpg"
                }
            ]
        }
        ]
    }

]
